module gitlab.com/soverdrive/nointerface

go 1.19

require (
	github.com/glebarez/go-sqlite v1.21.1
	github.com/go-chi/chi v1.5.4
)

require (
	github.com/dustin/go-humanize v1.0.1 // indirect
	github.com/google/uuid v1.3.0 // indirect
	github.com/mattn/go-isatty v0.0.17 // indirect
	github.com/remyoudompheng/bigfft v0.0.0-20230129092748-24d4a6f8daec // indirect
	golang.org/x/sys v0.4.0 // indirect
	modernc.org/libc v1.22.3 // indirect
	modernc.org/mathutil v1.5.0 // indirect
	modernc.org/memory v1.5.0 // indirect
	modernc.org/sqlite v1.21.1 // indirect
)
